OS info is 
uname_result(system='Windows', node='Rawiel', release='10', version='10.0.19045', machine='AMD64')

Python version is 3.9.13 (tags/v3.9.13:6de2ca5, May 17 2022, 16:36:42) [MSC v.1929 64 bit (AMD64)] ('64bit', 'WindowsPE')